STAT 184 — Summer 2026 – ggplot2 internals · aesthetics · geoms
…
“I want different lines per group” \(\rightarrow\) I need a discrete variable mapped to an aesthetic that splits the geom (color, linetype, group).

“My bar chart shows counts but I want proportions” \(\rightarrow\) I need to override the stat.

Every confusion you’ve had with ggplot maps onto one of these concepts.

A dataset for today

The storms dataset

Built into the tidyverse (via dplyr). Records of every named Atlantic storm since 1975, drawn from NOAA’s HURDAT2 reanalysis.

storms

# A tibble: 20,778 × 13
   name   year month   day  hour   lat  long status      category  wind pressure
   <chr> <dbl> <dbl> <int> <dbl> <dbl> <dbl> <fct>          <dbl> <int>    <int>
 1 Amy    1975     6    27     0  27.5 -79   tropical d…       NA    25     1013
 2 Amy    1975     6    27     6  28.5 -79   tropical d…       NA    25     1013
 3 Amy    1975     6    27    12  29.5 -79   tropical d…       NA    25     1013
 4 Amy    1975     6    27    18  30.5 -79   tropical d…       NA    25     1013
 5 Amy    1975     6    28     0  31.5 -78.8 tropical d…       NA    25     1012
 6 Amy    1975     6    28     6  32.4 -78.7 tropical d…       NA    25     1012
 7 Amy    1975     6    28    12  33.3 -78   tropical d…       NA    25     1011
 8 Amy    1975     6    28    18  34   -77   tropical d…       NA    30     1006
 9 Amy    1975     6    29     0  34.4 -75.8 tropical s…       NA    35     1004
10 Amy    1975     6    29     6  34   -74.8 tropical s…       NA    40     1002
# ℹ 20,768 more rows
# ℹ 2 more variables: tropicalstorm_force_diameter <int>,
#   hurricane_force_diameter <int>
…
